id,name,model_id:id,group_id:id,perm_read,perm_write,perm_create,perm_unlink
gdpr_cookie_notice.access_website_cookie_notice,access_website_cookie_notice,gdpr_cookie_notice.model_website_cookie_notice,,1,1,0,0
gdpr_cookie_notice.access_cookie_popup_group,access_cookie_popup_group,gdpr_cookie_notice.model_cookie_popup_group,base.group_user,1,1,1,1
gdpr_cookie_notice.access_cookie_popup_group_public,access_cookie_popup_group_public,gdpr_cookie_notice.model_cookie_popup_group,base.group_public,1,0,0,0
gdpr_cookie_notice.access_cookie_popup_group_portal,access_cookie_popup_group_portal,gdpr_cookie_notice.model_cookie_popup_group,base.group_portal,1,0,0,0

gdpr_cookie_notice.access_cookie_popup_group_info,access_cookie_popup_group_info,gdpr_cookie_notice.model_cookie_popup_group_info,base.group_user,1,1,1,1
gdpr_cookie_notice.access_cookie_popup_group_info_public,access_cookie_popup_group_info_public,gdpr_cookie_notice.model_cookie_popup_group_info,base.group_public,1,0,0,0
gdpr_cookie_notice.access_cookie_popup_group_info_portal_user,access_cookie_popup_group_info_portal_user,gdpr_cookie_notice.model_cookie_popup_group_info,base.group_portal,1,0,0,0

gdpr_cookie_notice.access_affected_cookies,access_affected_cookies,gdpr_cookie_notice.model_affected_cookies,base.group_user,1,1,1,1
gdpr_cookie_notice.access_affected_cookies_public,access_affected_cookies_public,gdpr_cookie_notice.model_affected_cookies,base.group_public,1,0,0,0
gdpr_cookie_notice.access_affected_cookies_portal_user,access_affected_cookies_portal_user,gdpr_cookie_notice.model_affected_cookies,base.group_portal,1,0,0,0

gdpr_cookie_notice.access_hide_cookie_popup,access_hide_cookie_popup,gdpr_cookie_notice.model_hide_cookie_popup,base.group_user,1,1,1,1
gdpr_cookie_notice.access_hide_cookie_popup_public,access_hide_cookie_popup_public,gdpr_cookie_notice.model_hide_cookie_popup,base.group_public,1,0,0,0
gdpr_cookie_notice.access_hide_cookie_popup_portal_user,access_hide_cookie_popup_portal_user,gdpr_cookie_notice.model_hide_cookie_popup,base.group_portal,1,0,0,0

gdpr_cookie_notice.access_affected_local_cookies,access_affected_local_cookies,gdpr_cookie_notice.model_affected_local_cookies,base.group_user,1,1,1,1
gdpr_cookie_notice.access_affected_local_cookies_public,access_affected_local_cookies_public,gdpr_cookie_notice.model_affected_local_cookies,base.group_public,1,0,0,0
gdpr_cookie_notice.access_affected_local_cookies_portal_user,access_affected_local_cookies_portal_user,gdpr_cookie_notice.model_affected_local_cookies,base.group_portal,1,0,0,0

gdpr_cookie_notice.access_local_cookies,access_local_cookies,gdpr_cookie_notice.model_local_cookies,base.group_user,1,1,1,1
gdpr_cookie_notice.access_local_cookies_public,access_local_cookies_public,gdpr_cookie_notice.model_local_cookies,base.group_public,1,0,0,0
gdpr_cookie_notice.access_local_cookies_portal,access_local_cookies_portal,gdpr_cookie_notice.model_local_cookies,base.group_portal,1,0,0,0

gdpr_cookie_notice.access_third_party_cookies,access_third_party_cookies,gdpr_cookie_notice.model_third_party_cookies,base.group_user,1,1,1,1
gdpr_cookie_notice.access_third_party_cookies_public,access_third_party_cookies_public,gdpr_cookie_notice.model_third_party_cookies,base.group_public,1,0,0,0
gdpr_cookie_notice.access_third_party_cookies_portal,access_third_party_cookies_portal,gdpr_cookie_notice.model_third_party_cookies,base.group_portal,1,0,0,0
